%YAML 1.1
%TAG !u! tag:unity3d.com,2011:
--- !u!78 &1
TagManager:
  serializedVersion: 2
  tags: []
  layers:
  - Default
  - TransparentFX
  - Ignore Raycast
  - 
  - Water
  - UI
  - 
  - 
  - 
  - 
  - 
  - 
  - 
  - 
  - 
  - 
  - 
  - 
  - 
  - 
  - 
  - 
  - 
  - 
  - 
  - 
  - 
  - 
  - 
  - 
  - 
  - 
  m_SortingLayers:
  - name: Default
    uniqueID: 0
    locked: 0
  - name: Collision
    uniqueID: 2399616153
    locked: 0
  - name: Decorations
    uniqueID: 1339115625
    locked: 0
  - name: Interaction
    uniqueID: 627915229
    locked: 0
  - name: Player
    uniqueID: 377636253
    locked: 0
  - name: AbovePlayer
    uniqueID: 2105087947
    locked: 0
